\select@language {english}
\contentsline {chapter}{\numberline {1}Indices and tables}{1}{chapter.1}
\contentsline {chapter}{\numberline {2}PyZestDB client}{3}{chapter.2}
\contentsline {chapter}{Python Module Index}{7}{section*.12}
\contentsline {chapter}{Index}{9}{section*.13}
