\relax 
\providecommand\hyper@newdestlabel[2]{}
\providecommand\HyperFirstAtBeginDocument{\AtBeginDocument}
\HyperFirstAtBeginDocument{\ifx\hyper@anchor\@undefined
\global\let\oldcontentsline\contentsline
\gdef\contentsline#1#2#3#4{\oldcontentsline{#1}{#2}{#3}}
\global\let\oldnewlabel\newlabel
\gdef\newlabel#1#2{\newlabelxx{#1}#2}
\gdef\newlabelxx#1#2#3#4#5#6{\oldnewlabel{#1}{{#2}{#3}}}
\AtEndDocument{\ifx\hyper@anchor\@undefined
\let\contentsline\oldcontentsline
\let\newlabel\oldnewlabel
\fi}
\fi}
\global\let\hyper@last\relax 
\gdef\HyperFirstAtBeginDocument#1{#1}
\providecommand\HyField@AuxAddToFields[1]{}
\providecommand\HyField@AuxAddToCoFields[2]{}
\select@language{english}
\@writefile{toc}{\select@language{english}}
\@writefile{lof}{\select@language{english}}
\@writefile{lot}{\select@language{english}}
\newlabel{index::doc}{{}{1}{}{section*.2}{}}
\@writefile{toc}{\contentsline {chapter}{\numberline {1}Indices and tables}{1}{chapter.1}}
\@writefile{lof}{\addvspace {10\p@ }}
\@writefile{lot}{\addvspace {10\p@ }}
\newlabel{index:indices-and-tables}{{1}{1}{Indices and tables}{chapter.1}{}}
\@writefile{toc}{\contentsline {chapter}{\numberline {2}PyZestDB client}{3}{chapter.2}}
\@writefile{lof}{\addvspace {10\p@ }}
\@writefile{lot}{\addvspace {10\p@ }}
\newlabel{index:pyzestdb-client}{{2}{3}{PyZestDB client}{chapter.2}{}}
\newlabel{index:module-dbox_zest_commbase}{{2}{3}{PyZestDB client}{section*.3}{}}
\newlabel{index:module-dbox_zest_commbase}{{2}{3}{PyZestDB client}{section*.4}{}}
\newlabel{index:dbox_zest_commbase.Zest_Access_Point}{{2}{3}{}{section*.5}{}}
\newlabel{index:dbox_zest_commbase.Zest_Access_Point.get_last_n_ts}{{2}{4}{}{section*.6}{}}
\newlabel{index:dbox_zest_commbase.Zest_Access_Point.get_last_ts}{{2}{4}{}{section*.7}{}}
\newlabel{index:dbox_zest_commbase.Zest_Access_Point.observe}{{2}{4}{}{section*.8}{}}
\newlabel{index:dbox_zest_commbase.Zest_Access_Point.post_ts}{{2}{4}{}{section*.9}{}}
\newlabel{index:module-dbox_zest_message}{{2}{5}{}{section*.10}{}}
\newlabel{index:module-dbox_zest_message}{{2}{5}{}{section*.11}{}}
\@writefile{toc}{\contentsline {chapter}{Python Module Index}{7}{section*.12}}
\@writefile{toc}{\contentsline {chapter}{Index}{9}{section*.13}}
